STAT 413/613: HW on List Columns and COVID19
…
Use a join to add the data from df_pop to df_all

This means there will be two columns with population data:

Population for US Counties

PopTotal for the country level

df_all %>%
  inner_join(df_pop, by = c("Country_Region" = "Location")) -> df_all

df_all 

## # A tibble: 2,154,600 x 16
##    case_types Country_State Province_State Country_Region   Lat  Long County
##    <fct>      <chr>         <chr>          <chr>          <dbl> <dbl> <chr> 
##  1 confirmed Afghanistan   <NA>           Afghanistan     33.9  67.7 NA    
##  2 confirmed Afghanistan   <NA>           Afghanistan     33.9  67.7 NA    
##  3 confirmed Afghanistan   <NA>           Afghanistan     33.9  67.7 NA    
##  4 confirmed Afghanistan   <NA>           Afghanistan     33.9  67.7 NA    
##  5 confirmed Afghanistan   <NA>           Afghanistan     33.9  67.7 NA    
##  6 confirmed Afghanistan   <NA>           Afghanistan     33.9  67.7 NA    
##  7 confirmed Afghanistan   <NA>           Afghanistan     33.9  67.7 NA    
##  8 confirmed Afghanistan   <NA>           Afghanistan     33.9  67.7 NA    
##  9 confirmed Afghanistan   <NA>           Afghanistan     33.9  67.7 NA    
## 10 confirmed Afghanistan   <NA>           Afghanistan     33.9  67.7 NA    
## #  with 2,154,590 more rows, and 9 more variables: Population <dbl>,
## #   Date <date>, dailyValues <dbl>, Continent <chr>, LocID <dbl>,
## #   PopTotal <dbl>, PopDensity <dbl>, rank_p <dbl>, rank_d <dbl>
…
